Análisis de curvas esfuerzo–deformación en cilindros de concreto
…
curves <- purrr::map_dfr(setdiff(sheets, "Elastic Modulus (Without Bars)"), read_sheet_curves)

dplyr::glimpse(curves)

## Rows: 43,475
## Columns: 4
## $ sheet      <chr> "C-B", "C-B", "C-B", "C-B", "C-B", "C-B", "C-B", "C-B", "C-…
## $ specimen   <chr> "C-B1", "C-B1", "C-B1", "C-B1", "C-B1", "C-B1", "C-B1", "C-…
## $ strain_mm  <dbl> 0.000000, 0.000000, 0.000125, 0.000250, 0.000250, 0.000625,…
## $ stress_mpa <dbl> 0.000000000, 0.004749155, 0.009126637, 0.014990808, 0.02064…

dplyr::count(curves, sheet, specimen)

## # A tibble: 32 × 3
##    sheet specimen     n
##    <chr> <chr>    <int>
##  1 C-B   ...2      1467
##  2 C-B   ...3      1467
##  3 C-B   ...5      1585
##  4 C-B   ...6      1383
##  5 C-B   ...8      1383
##  6 C-B   C-B1      1467
##  7 C-B   C-B2      1585
##  8 C-B   C-B3      1383
##  9 C-R-B ...2      2369
## 10 C-R-B ...3      1222
## # ℹ 22 more rows
…
